{
  "type": "array",
  "uniqueItems": true,
  "items": {
    "type": "object",
    "properties": {
      "id": { "type": "integer" },
      "name": { "type": "string" },
      "active": { "type": "boolean" },
      "character_id": { "type": "integer" }
    },
    "required": [
      "id",
      "name",
      "active",
      "character_id"
    ]
  }
}
